<?xml version="1.0" encoding="UTF-8" standalone="no"?>
<!-- Created with Inkscape (http://www.inkscape.org/) -->

<svg
   xmlns:dc="http://purl.org/dc/elements/1.1/"
   xmlns:cc="http://creativecommons.org/ns#"
   xmlns:rdf="http://www.w3.org/1999/02/22-rdf-syntax-ns#"
   xmlns:svg="http://www.w3.org/2000/svg"
   xmlns="http://www.w3.org/2000/svg"
   xmlns:sodipodi="http://sodipodi.sourceforge.net/DTD/sodipodi-0.dtd"
   xmlns:inkscape="http://www.inkscape.org/namespaces/inkscape"
   width="297mm"
   height="210mm"
   viewBox="0 0 297 210"
   version="1.1"
   id="svg4109"
   inkscape:version="0.92.3 (2405546, 2018-03-11)"
   sodipodi:docname="seeds-specific.svg">
  <defs
     id="defs4103" />
  <sodipodi:namedview
     id="base"
     pagecolor="#ffffff"
     bordercolor="#666666"
     borderopacity="1.0"
     inkscape:pageopacity="0.0"
     inkscape:pageshadow="2"
     inkscape:zoom="0.70710678"
     inkscape:cx="404.3126"
     inkscape:cy="357.93448"
     inkscape:document-units="mm"
     inkscape:current-layer="layer1"
     showgrid="false"
     inkscape:object-paths="true"
     inkscape:window-width="1869"
     inkscape:window-height="1016"
     inkscape:window-x="1131"
     inkscape:window-y="425"
     inkscape:window-maximized="1"
     showguides="true"
     inkscape:guide-bbox="true"
     inkscape:snap-global="false"
     inkscape:measure-start="372.645,225.567"
     inkscape:measure-end="796.909,225.567" />
  <metadata
     id="metadata4106">
    <rdf:RDF>
      <cc:Work
         rdf:about="">
        <dc:format>image/svg+xml</dc:format>
        <dc:type
           rdf:resource="http://purl.org/dc/dcmitype/StillImage" />
        <dc:title></dc:title>
      </cc:Work>
    </rdf:RDF>
  </metadata>
  <g
     inkscape:label="Layer 1"
     inkscape:groupmode="layer"
     id="layer1"
     transform="translate(0,-87)">
    <path
       style="opacity:1;vector-effect:none;fill:#9ebfe5;fill-opacity:1;stroke:#808080;stroke-width:2;stroke-linecap:butt;stroke-linejoin:round;stroke-miterlimit:4;stroke-dasharray:none;stroke-dashoffset:0;stroke-opacity:1"
       d="m 106.00085,133.20071 h 84.9917 c 0,0 5.10268,39.19953 5.10268,58.79929 0,19.59976 -5.10268,58.79929 -5.10268,58.79929 h -84.9917 c 0,0 -5.10268,-39.12586 -5.10268,-58.79929 0,-19.67343 5.10268,-58.79929 5.10268,-58.79929 z"
       id="rect4111"
       inkscape:connector-curvature="0"
       sodipodi:nodetypes="ccscczc" />
    <text
       xml:space="preserve"
       style="font-style:normal;font-variant:normal;font-weight:normal;font-stretch:normal;font-size:16.11914444px;line-height:100%;font-family:sans-serif;-inkscape-font-specification:'sans-serif, Normal';font-variant-ligatures:normal;font-variant-caps:normal;font-variant-numeric:normal;font-feature-settings:normal;text-align:justify;letter-spacing:0px;word-spacing:0px;writing-mode:lr-tb;text-anchor:start;fill:#333333;fill-opacity:1;stroke:none;stroke-width:0.26458332px;stroke-linecap:butt;stroke-linejoin:miter;stroke-opacity:1"
       x="124.01103"
       y="200.23016"
       id="text4132"><tspan
         sodipodi:role="line"
         id="tspan4130"
         x="124.01103"
         y="200.23016"
         style="fill:#333333;stroke-width:0.26458332px">Seeds</tspan></text>
    <text
       id="text4136"
       y="182.15073"
       x="137.61029"
       style="font-style:normal;font-variant:normal;font-weight:normal;font-stretch:normal;font-size:7.14023733px;line-height:100%;font-family:sans-serif;-inkscape-font-specification:'sans-serif, Normal';font-variant-ligatures:normal;font-variant-caps:normal;font-variant-numeric:normal;font-feature-settings:normal;text-align:justify;letter-spacing:0px;word-spacing:0px;writing-mode:lr-tb;text-anchor:start;fill:#333333;fill-opacity:1;stroke:none;stroke-width:0.26458332px;stroke-linecap:butt;stroke-linejoin:miter;stroke-opacity:1"
       xml:space="preserve"><tspan
         style="fill:#333333;stroke-width:0.26458332px"
         y="182.15073"
         x="137.61029"
         id="tspan4134"
         sodipodi:role="line">Actual</tspan></text>
    <text
       id="text4136-3"
       y="143.43898"
       x="124.18777"
       style="font-style:normal;font-variant:normal;font-weight:normal;font-stretch:normal;font-size:5.96447468px;line-height:100%;font-family:sans-serif;-inkscape-font-specification:'sans-serif, Normal';font-variant-ligatures:normal;font-variant-caps:normal;font-variant-numeric:normal;font-feature-settings:normal;text-align:justify;letter-spacing:0px;word-spacing:0px;writing-mode:lr-tb;text-anchor:start;fill:#666666;fill-opacity:1;stroke:none;stroke-width:0.26458332px;stroke-linecap:butt;stroke-linejoin:miter;stroke-opacity:1"
       xml:space="preserve"><tspan
         style="fill:#666666;stroke-width:0.26458332px"
         y="143.43898"
         x="124.18777"
         id="tspan4134-6"
         sodipodi:role="line">Proteome Farms</tspan></text>
    <text
       id="text4136-3-5"
       y="245.58124"
       x="127.67928"
       style="font-style:normal;font-variant:normal;font-weight:normal;font-stretch:normal;font-size:5.96447468px;line-height:100%;font-family:sans-serif;-inkscape-font-specification:'sans-serif, Normal';font-variant-ligatures:normal;font-variant-caps:normal;font-variant-numeric:normal;font-feature-settings:normal;text-align:justify;letter-spacing:0px;word-spacing:0px;writing-mode:lr-tb;text-anchor:start;fill:#666666;fill-opacity:1;stroke:none;stroke-width:0.26458332px;stroke-linecap:butt;stroke-linejoin:miter;stroke-opacity:1"
       xml:space="preserve"><tspan
         style="fill:#666666;stroke-width:0.26458332px"
         y="245.58124"
         x="127.67928"
         id="tspan4134-6-6"
         sodipodi:role="line">FASTA Quality</tspan></text>
    <rect
       style="opacity:1;vector-effect:none;fill:#b9c1ca;fill-opacity:1;stroke:#808080;stroke-width:2;stroke-linecap:butt;stroke-linejoin:round;stroke-miterlimit:4;stroke-dasharray:none;stroke-dashoffset:0;stroke-opacity:1;font-variant-east_asian:normal"
       id="rect5064"
       width="84.991707"
       height="7.2819209"
       x="106.00085"
       y="250.79929" />
    <rect
       y="125.91882"
       x="106.00085"
       height="7.2819209"
       width="84.991707"
       id="rect5073"
       style="opacity:1;vector-effect:none;fill:#b9c1ca;fill-opacity:1;stroke:#808080;stroke-width:2;stroke-linecap:butt;stroke-linejoin:round;stroke-miterlimit:4;stroke-dasharray:none;stroke-dashoffset:0;stroke-opacity:1" />
    <path
       style="fill:none;fill-rule:evenodd;stroke:#666666;stroke-width:1.00000003;stroke-linecap:butt;stroke-linejoin:miter;stroke-opacity:1;stroke-miterlimit:4;stroke-dasharray:1.00000003, 2.00000006000000008;stroke-dashoffset:0"
       d="m 108.19568,128.89509 c 12.28423,1.03943 41.38839,-0.47247 54.33408,0 12.94569,0.47247 25.4189,1.03943 25.4189,1.03943"
       id="path5075"
       inkscape:connector-curvature="0" />
    <path
       style="opacity:1;vector-effect:none;fill:none;fill-opacity:1;fill-rule:evenodd;stroke:#666666;stroke-width:1;stroke-linecap:butt;stroke-linejoin:miter;stroke-miterlimit:4;stroke-dasharray:1.00000003, 2.00000006;stroke-dashoffset:0;stroke-opacity:1"
       d="m 109.91459,254.62441 c 15.90254,-1.40316 24.22798,-0.93544 37.1371,-0.93544 12.90912,0 23.76027,-0.28064 30.49546,0.93544 6.73519,1.21608 10.66404,-0.18708 10.66404,-0.18708"
       id="path5086"
       inkscape:connector-curvature="0"
       sodipodi:nodetypes="cssc" />
    <path
       style="fill:none;fill-rule:evenodd;stroke:#808080;stroke-width:2;stroke-linecap:butt;stroke-linejoin:round;stroke-opacity:1;font-variant-east_asian:normal;opacity:1;vector-effect:none;fill-opacity:1;stroke-miterlimit:4;stroke-dasharray:none;stroke-dashoffset:0"
       d="m 110.00814,232.08023 c 1.49671,9.35443 0.37417,13.09621 12.34785,12.53494"
       id="path5093"
       inkscape:connector-curvature="0" />
    <path
       inkscape:connector-curvature="0"
       id="path5114"
       d="m 186.98134,232.08023 c -1.49671,9.35443 -0.37417,13.09621 -12.34785,12.53494"
       style="opacity:1;vector-effect:none;fill:none;fill-opacity:1;fill-rule:evenodd;stroke:#808080;stroke-width:2;stroke-linecap:butt;stroke-linejoin:round;stroke-miterlimit:4;stroke-dasharray:none;stroke-dashoffset:0;stroke-opacity:1" />
  </g>
</svg>
